date	staff_id	count(*)
2005-05-24	1	4
2005-05-24	2	4
2005-05-25	1	73
2005-05-25	2	64
2005-05-26	1	96
2005-05-26	2	78
2005-05-27	1	84
2005-05-27	2	83
2005-05-28	1	119
2005-05-28	2	77
2005-05-29	1	79
2005-05-29	2	75
2005-05-30	1	83
2005-05-30	2	75
2005-05-31	1	79
2005-05-31	2	84
2005-06-14	1	4
2005-06-14	2	12
2005-06-15	1	186
2005-06-15	2	162
2005-06-16	1	163
2005-06-16	2	161
2005-06-17	1	153
2005-06-17	2	172
2005-06-18	1	179
2005-06-18	2	166
2005-06-19	1	180
2005-06-19	2	168
2005-06-20	1	162
2005-06-20	2	169
2005-06-21	1	137
2005-06-21	2	138
2005-07-05	1	11
2005-07-05	2	16
2005-07-06	1	252
2005-07-06	2	252
2005-07-07	1	229
2005-07-07	2	232
2005-07-08	1	260
2005-07-08	2	252
2005-07-09	1	253
2005-07-09	2	260
2005-07-10	1	249
2005-07-10	2	231
2005-07-11	1	229
2005-07-11	2	232
2005-07-12	1	244
2005-07-12	2	252
2005-07-26	1	20
2005-07-26	2	13
2005-07-27	1	329
2005-07-27	2	320
2005-07-28	1	309
2005-07-28	2	311
2005-07-29	1	318
2005-07-29	2	323
2005-07-30	1	315
2005-07-30	2	320
2005-07-31	1	328
2005-07-31	2	351
2005-08-01	1	345
2005-08-01	2	326
2005-08-02	1	307
2005-08-02	2	336
2005-08-16	1	7
2005-08-16	2	16
2005-08-17	1	300
2005-08-17	2	293
2005-08-18	1	319
2005-08-18	2	302
2005-08-19	1	298
2005-08-19	2	330
2005-08-20	1	300
2005-08-20	2	324
2005-08-21	1	308
2005-08-21	2	351
2005-08-22	1	320
2005-08-22	2	306
2005-08-23	1	331
2005-08-23	2	268
2006-02-14	1	95
2006-02-14	2	87
